<?xml version="1.0" encoding="UTF-8" standalone="no"?>
<!-- Created with Inkscape (http://www.inkscape.org/) -->

<svg
   xmlns:dc="http://purl.org/dc/elements/1.1/"
   xmlns:cc="http://creativecommons.org/ns#"
   xmlns:rdf="http://www.w3.org/1999/02/22-rdf-syntax-ns#"
   xmlns:svg="http://www.w3.org/2000/svg"
   xmlns="http://www.w3.org/2000/svg"
   xmlns:xlink="http://www.w3.org/1999/xlink"
   xmlns:sodipodi="http://sodipodi.sourceforge.net/DTD/sodipodi-0.dtd"
   xmlns:inkscape="http://www.inkscape.org/namespaces/inkscape"
   width="210mm"
   height="297mm"
   viewBox="0 0 210 297"
   version="1.1"
   id="svg8"
   inkscape:version="0.92.1 r15371"
   sodipodi:docname="IdmCicRestApiIcon.svg">
  <defs
     id="defs2">
    <style
       id="style5547">.cls-1{fill:url(#linear-gradient);}.cls-2{fill:url(#linear-gradient-2);}.cls-3{fill:url(#linear-gradient-3);}.cls-20,.cls-21,.cls-24,.cls-4{fill:none;}.cls-5{isolation:isolate;}.cls-6{clip-path:url(#clip-path);}.cls-7{clip-path:url(#clip-path-2);}.cls-8{fill:url(#radial-gradient);}.cls-9{mask:url(#mask);}.cls-10{clip-path:url(#clip-path-4);}.cls-11{fill:#3b557d;}.cls-12{fill:#496688;}.cls-13{mask:url(#mask-2);}.cls-14{clip-path:url(#clip-path-5);}.cls-15{clip-path:url(#clip-path-6);}.cls-16{fill:url(#linear-gradient-4);}.cls-17{opacity:0.1;mix-blend-mode:overlay;}.cls-18{clip-path:url(#clip-path-7);}.cls-19{mask:url(#mask-3);}.cls-20{stroke:#fff;}.cls-20,.cls-21,.cls-24{stroke-width:5px;}.cls-21,.cls-24{stroke:#1d1d1b;}.cls-22{fill:#1d1d1b;}.cls-23{fill:#fff;}.cls-24{stroke-linecap:round;}.cls-25{filter:url(#luminosity-noclip-3);}.cls-26{filter:url(#luminosity-noclip-2);}.cls-27{filter:url(#luminosity-noclip);}</style>
    <linearGradient
       gradientUnits="userSpaceOnUse"
       gradientTransform="matrix(0, 355.73, 355.73, 0, -211845.51, -219.6)"
       y2="596.69"
       x2="1.87"
       y1="596.69"
       x1="0.87"
       id="linear-gradient">
      <stop
         id="stop5549"
         stop-color="#fff"
         offset="0" />
      <stop
         id="stop5551"
         offset="1" />
    </linearGradient>
    <linearGradient
       gradientUnits="userSpaceOnUse"
       gradientTransform="matrix(421.84, 0, 0, -421.84, -494.8, 251767.91)"
       y2="596.14"
       x2="2.59"
       y1="596.14"
       x1="1.59"
       id="linear-gradient-2">
      <stop
         id="stop5554"
         stop-color="#fff"
         offset="0" />
      <stop
         id="stop5556"
         stop-color="#4d4d4d"
         offset="0.49" />
      <stop
         id="stop5558"
         stop-color="#fff"
         offset="0.97" />
      <stop
         id="stop5560"
         stop-color="#fff"
         offset="0.98" />
      <stop
         id="stop5562"
         stop-color="#fff"
         offset="1" />
    </linearGradient>
    <linearGradient
       xlink:href="#linear-gradient"
       gradientTransform="matrix(0, 120.79, 120.79, 0, -71957.77, 355.01)"
       y2="599.2"
       x2="1.08"
       y1="599.2"
       x1="0.08"
       id="linear-gradient-3" />
    <clipPath
       transform="translate(-223.35 -94.77)"
       id="clip-path">
      <rect
         id="rect5566"
         height="390.51"
         width="390.51"
         y="94.77"
         x="224"
         class="cls-4" />
    </clipPath>
    <clipPath
       transform="translate(-223.35 -94.77)"
       id="clip-path-2">
      <path
         id="path5569"
         d="M226.5,290c0,106.46,86.3,192.76,192.76,192.76S612,396.48,612,290,525.71,97.27,419.26,97.27,226.5,183.57,226.5,290"
         class="cls-4" />
    </clipPath>
    <radialGradient
       gradientUnits="userSpaceOnUse"
       gradientTransform="matrix(51.001083,0,0,-51.001083,-9.4181531,30510.401)"
       r="1"
       cy="596.57"
       cx="2.16"
       id="radial-gradient">
      <stop
         id="stop5572"
         stop-color="#3b557e"
         offset="0" />
      <stop
         id="stop5574"
         stop-color="#3b557e"
         offset="0.7" />
      <stop
         id="stop5576"
         stop-color="#39527a"
         offset="0.71" />
      <stop
         id="stop5578"
         stop-color="#28385a"
         offset="0.85" />
      <stop
         id="stop5580"
         stop-color="#212e4e"
         offset="0.93" />
      <stop
         id="stop5582"
         stop-color="#253252"
         offset="0.94" />
      <stop
         id="stop5584"
         stop-color="#323f5f"
         offset="0.96" />
      <stop
         id="stop5586"
         stop-color="#485375"
         offset="0.98" />
      <stop
         id="stop5588"
         stop-color="#667093"
         offset="1" />
      <stop
         id="stop5590"
         stop-color="#677194"
         offset="1" />
    </radialGradient>
    <filter
       color-interpolation-filters="sRGB"
       filterUnits="userSpaceOnUse"
       height="589.3"
       width="589.3"
       y="-4.63"
       x="124.61"
       id="luminosity-noclip">
      <feFlood
         id="feFlood5593"
         result="bg"
         flood-color="#fff" />
      <feBlend
         id="feBlend5595"
         in2="bg"
         in="SourceGraphic" />
    </filter>
    <mask
       maskUnits="userSpaceOnUse"
       height="589.3"
       width="589.3"
       y="-99.39"
       x="-98.75"
       id="mask">
      <g
         id="g5602"
         class="cls-27">
        <g
           id="g5600"
           transform="translate(-223.35 -94.77)">
          <rect
             id="rect5598"
             transform="translate(-61.67 120.91) rotate(-15.3)"
             height="479.72"
             width="479.72"
             y="50.17"
             x="179.4"
             class="cls-1" />
        </g>
      </g>
    </mask>
    <clipPath
       transform="translate(-223.35 -94.77)"
       id="clip-path-4">
      <rect
         id="rect5605"
         height="394.51"
         width="403.51"
         y="89.27"
         x="217.5"
         class="cls-4" />
    </clipPath>
    <filter
       color-interpolation-filters="sRGB"
       filterUnits="userSpaceOnUse"
       height="706.44"
       width="706.44"
       y="-63.2"
       x="66.03"
       id="luminosity-noclip-2">
      <feFlood
         id="feFlood5608"
         result="bg"
         flood-color="#fff" />
      <feBlend
         id="feBlend5610"
         in2="bg"
         in="SourceGraphic" />
    </filter>
    <mask
       maskUnits="userSpaceOnUse"
       height="706.44"
       width="706.44"
       y="-157.97"
       x="-157.32"
       id="mask-2">
      <g
         id="g5617"
         class="cls-26">
        <g
           id="g5615"
           transform="translate(-223.35 -94.77)">
          <rect
             id="rect5613"
             transform="translate(-85.97 221.95) rotate(-27)"
             height="525.24"
             width="525.24"
             y="27.41"
             x="156.64"
             class="cls-2" />
        </g>
      </g>
    </mask>
    <clipPath
       transform="translate(-223.35 -94.77)"
       id="clip-path-5">
      <rect
         id="rect5620"
         height="179.46"
         width="404.59"
         y="266.43"
         x="216.79"
         class="cls-4" />
    </clipPath>
    <clipPath
       transform="translate(-223.35 -94.77)"
       id="clip-path-6">
      <path
         id="path5623"
         d="M226.16,278C224,303.49,229,382.86,299.86,442.39,338.13,443.8,480.2,468.61,608,326.17c5.11-19.85,3.69-37.56,4.4-51.74C581.2,334,384.9,468.61,226.16,278"
         class="cls-4" />
    </clipPath>
    <linearGradient
       gradientUnits="userSpaceOnUse"
       gradientTransform="matrix(0,50.165,50.165,0,-30036.953,-29.557333)"
       y2="596.64"
       x2="3.18"
       y1="596.64"
       x1="2.18"
       id="linear-gradient-4">
      <stop
         id="stop5626"
         stop-color="#253354"
         offset="0" />
      <stop
         id="stop5628"
         stop-color="#253354"
         offset="0.01" />
      <stop
         id="stop5630"
         stop-color="#233051"
         offset="0.12" />
      <stop
         id="stop5632"
         stop-color="#212e4e"
         offset="0.48" />
      <stop
         id="stop5634"
         stop-color="#21385a"
         offset="1" />
    </linearGradient>
    <clipPath
       transform="translate(-223.35 -94.77)"
       id="clip-path-7">
      <rect
         id="rect5637"
         height="379.34"
         width="388.34"
         y="95.44"
         x="225.09"
         class="cls-4" />
    </clipPath>
    <filter
       color-interpolation-filters="sRGB"
       filterUnits="userSpaceOnUse"
       height="379.34"
       width="388.34"
       y="95.44"
       x="225.09"
       id="luminosity-noclip-3">
      <feFlood
         id="feFlood5640"
         result="bg"
         flood-color="#fff" />
      <feBlend
         id="feBlend5642"
         in2="bg"
         in="SourceGraphic" />
    </filter>
    <mask
       maskUnits="userSpaceOnUse"
       height="379.34"
       width="388.34"
       y="0.67"
       x="1.73"
       id="mask-3">
      <g
         id="g5649"
         class="cls-25">
        <g
           id="g5647"
           transform="translate(-223.35 -94.77)">
          <rect
             id="rect5645"
             height="379.34"
             width="388.34"
             y="95.44"
             x="225.09"
             class="cls-3" />
        </g>
      </g>
    </mask>
  </defs>
  <sodipodi:namedview
     id="base"
     pagecolor="#ffffff"
     bordercolor="#666666"
     borderopacity="1.0"
     inkscape:pageopacity="0.0"
     inkscape:pageshadow="2"
     inkscape:zoom="0.35"
     inkscape:cx="-121.42857"
     inkscape:cy="535.71429"
     inkscape:document-units="mm"
     inkscape:current-layer="layer1"
     showgrid="false"
     inkscape:window-width="2560"
     inkscape:window-height="1378"
     inkscape:window-x="-8"
     inkscape:window-y="-8"
     inkscape:window-maximized="1" />
  <metadata
     id="metadata5">
    <rdf:RDF>
      <cc:Work
         rdf:about="">
        <dc:format>image/svg+xml</dc:format>
        <dc:type
           rdf:resource="http://purl.org/dc/dcmitype/StillImage" />
        <dc:title></dc:title>
      </cc:Work>
    </rdf:RDF>
  </metadata>
  <g
     inkscape:label="Calque 1"
     inkscape:groupmode="layer"
     id="layer1">
    <g
       id="layer1-2"
       inkscape:label="Calque 1"
       transform="translate(-65.767856,-149.67857)">
      <g
         transform="translate(55.360843,117.51114)"
         inkscape:label="Calque 1"
         id="layer1-4">
        <path
           id="path6182"
           d="m 81.973106,67.241968 c -9.839211,0 -18.379617,9.025765 -18.627252,20.934208 C 53.18618,92.812614 45.95424,105.80583 45.95424,119.78565 c 0,16.51841 10.086848,30.17233 23.174287,32.32306 h 92.711733 c 12.92722,-0.91665 23.17429,-13.71592 23.17429,-29.67903 0,-15.39899 -9.53334,-29.670562 -21.80508,-31.371763 0.0494,-0.934495 0.0812,-0.828066 0.0812,-1.77998 0,-23.860953 -16.53956,-42.670826 -36.93904,-42.670826 -15.09754,0 -27.787687,8.590444 -33.519917,23.778026 -3.066755,-2.89974 -6.678197,-3.143169 -10.858607,-3.143169 z"
           inkscape:connector-curvature="0"
           style="fill:#5a9540;fill-opacity:1;stroke:#1d1d1b;stroke-width:1.72899997;stroke-miterlimit:4;stroke-dasharray:none;stroke-opacity:1"
           sodipodi:nodetypes="scsccscsscs" />
        <path
           id="path6182-7"
           d="m 93.485932,73.513329 c -2.93913,-2.779738 -6.62506,-4.427379 -10.63221,-4.427379 -9.431424,0 -17.110634,9.158921 -17.348005,20.573811 -9.738604,4.444279 -16.670814,15.884509 -16.670814,29.284939 0,15.83379 9.668796,28.92172 22.213821,30.9833 h 88.869266 c 12.39144,-0.87865 22.21382,-13.14737 22.21382,-28.44888 0,-14.76076 -9.13823,-26.91915 -20.90136,-28.549846 0.0473,-0.895764 0.0778,-1.808216 0.0778,-2.720678 0,-22.872026 -15.85407,-41.409551 -35.40807,-41.409551 -14.47183,0 -26.919098,10.155942 -32.413238,24.713888"
           inkscape:connector-curvature="0"
           style="fill:#578838;fill-opacity:1;stroke:none;stroke-width:1.17927778;stroke-miterlimit:4;stroke-dasharray:none;stroke-opacity:1"
           sodipodi:nodetypes="cscsccscssc" />
        <path
           style="fill:#497424;fill-opacity:1;stroke:none;stroke-width:1.17677414;stroke-miterlimit:4;stroke-dasharray:none;stroke-opacity:1"
           d="m 49.954866,110.25872 c -0.645396,2.73668 -0.993222,5.62626 -0.993222,8.61446 0,15.79638 9.650359,28.85311 22.171773,30.90982 h 88.702073 c 12.36814,-0.87658 22.17178,-13.11646 22.17178,-28.38182 0,-3.95343 -0.66257,-7.71629 -1.85157,-11.14247 -45.51461,26.27787 -84.701058,26.26931 -130.200834,0 z"
           id="path6182-5"
           inkscape:connector-curvature="0"
           sodipodi:nodetypes="csccsccc" />
        <path
           id="path5666"
           d="m 121.83684,112.0417 c 15.69773,0 28.39773,-11.45646 28.39773,-25.590505 0,-14.134041 -12.7,-25.587853 -28.39773,-25.587853 -15.69772,0 -28.400368,11.469687 -28.400368,25.587853 0,14.118165 12.715878,25.590505 28.400368,25.590505"
           class="cls-12"
           inkscape:connector-curvature="0"
           style="isolation:isolate;fill:#6c9f4f;fill-opacity:1;stroke-width:0.26458332" />
        <g
           id="g6271">
          <path
             style="isolation:isolate;fill:#1d1d1b;stroke-width:0.26458332"
             inkscape:connector-curvature="0"
             class="cls-22"
             d="m 100.4638,64.702446 12.46453,21.857229 c 0,0 13.12597,3.823229 13.12597,3.376083 0,-0.447146 -8.52752,-14.930437 -8.71272,-15.155333 -0.18521,-0.224896 -16.87513,-10.077979 -16.87513,-10.077979"
             id="path5688" />
          <path
             style="isolation:isolate;fill:#1d1d1b;stroke-width:0.26458332"
             inkscape:connector-curvature="0"
             class="cls-22"
             d="m 140.67518,107.18659 c 0,0 14.43831,7.12258 14.62616,7.12258 0.18786,0 9.7499,16.49677 9.37419,16.49677 -0.37571,0 -20.6375,-11.62579 -20.6375,-11.62579 0,0 -3.56129,-11.81364 -3.37608,-11.99885"
             id="path5690" />
          <path
             style="isolation:isolate;fill:#1d1d1b;stroke-width:0.26458332"
             inkscape:connector-curvature="0"
             class="cls-22"
             d="m 106.27405,123.74422 c -2.47914,-2.39448 -4.49791,-4.37621 -12.064998,-3.72798 -8.23912,0.70643 -5.88433,6.6675 2.33363,15.5231 8.598958,9.22867 14.022918,8.75771 15.020398,1.05833 0.889,-6.91885 -0.34396,-8.99583 -5.29167,-12.84552"
             id="path5692" />
          <path
             style="isolation:isolate;fill:#ffffff;stroke-width:0.26458332"
             inkscape:connector-curvature="0"
             class="cls-23"
             d="m 109.03895,122.61709 c -2.97127,-2.84162 -5.62504,-5.62504 -10.874368,-5.06148 -5.24934,0.56356 -9.7499,0.74877 -5.43984,8.99583 a 29.307895,29.307895 0 0 0 14.139338,13.38792 c 3.37343,1.50019 6.11187,0.29898 6.29972,-4.95035 0.18786,-5.24934 0.18786,-8.24971 -4.12485,-12.37457"
             id="path5694" />
          <path
             style="isolation:isolate;fill:none;stroke:#1d1d1b;stroke-width:1.32291663px"
             inkscape:connector-curvature="0"
             class="cls-21"
             d="m 109.03895,122.61709 c -2.97127,-2.84162 -5.62504,-5.62504 -10.874368,-5.06148 -5.24934,0.56356 -9.7499,0.74877 -5.43984,8.99583 a 29.307895,29.307895 0 0 0 14.139338,13.38792 c 3.37343,1.50019 6.11187,0.29898 6.29972,-4.95035 0.18786,-5.24934 0.18786,-8.24707 -4.12485,-12.37192 z"
             id="path5696" />
          <path
             style="isolation:isolate;fill:#1d1d1b;stroke-width:0.26458332"
             inkscape:connector-curvature="0"
             class="cls-22"
             d="m 111.81443,130.8668 -2.92629,5.24933 c 0,0 -0.44979,0.89959 -2.24896,0.11377 -2.13254,-0.93398 -7.500938,-3.41312 -10.800288,-7.76287 3.82587,5.47423 17.925518,17.96256 15.975538,2.39977"
             id="path5698" />
          <path
             style="isolation:isolate;fill:#ffffff;stroke-width:0.26458332"
             inkscape:connector-curvature="0"
             class="cls-23"
             d="m 102.30001,60.895092 13.16302,22.550437 10.64948,4.233333 c 0,0 1.50283,0.301625 0.60061,-1.600729 -0.90223,-1.902354 -5.51392,-12.750271 -5.51392,-12.750271 a 7.6464582,7.6464582 0 0 0 -3.03742,-3.563937 c -1.55575,-0.918104 -15.26116,-9.569979 -15.26116,-9.569979 -0.65088,-0.325438 -0.72761,0.425979 -0.60061,0.701146"
             id="path5700" />
          <path
             style="isolation:isolate;fill:none;stroke:#1d1d1b;stroke-width:1.32291663px"
             inkscape:connector-curvature="0"
             class="cls-21"
             d="m 102.30001,60.895092 13.16302,22.550437 10.64948,4.233333 c 0,0 1.50283,0.301625 0.60061,-1.600729 -0.90223,-1.902354 -5.51392,-12.750271 -5.51392,-12.750271 a 7.6464582,7.6464582 0 0 0 -3.03742,-3.563937 c -1.55575,-0.918104 -15.26116,-9.569979 -15.26116,-9.569979 -0.65088,-0.325438 -0.72761,0.425979 -0.60061,0.701146 z"
             id="path5702" />
          <path
             style="isolation:isolate;fill:#ffffff;stroke-width:0.26458332"
             inkscape:connector-curvature="0"
             class="cls-23"
             d="m 165.80001,127.55157 -18.74044,-9.86631 -4.28625,-12.43542 c 0,0 -0.29898,-1.50548 1.60338,-0.60325 1.90235,0.90223 10.84791,5.0509 10.84791,5.0509 a 6.6145832,6.6145832 0 0 1 3.36286,2.85221 c 0.9181,1.55575 7.91369,14.41185 7.91369,14.41185 0.32543,0.65087 -0.42334,0.7276 -0.70115,0.6006"
             id="path5704" />
          <path
             style="isolation:isolate;fill:none;stroke:#1d1d1b;stroke-width:1.32291663px"
             inkscape:connector-curvature="0"
             class="cls-21"
             d="m 165.80001,127.55157 -18.74044,-9.86631 -4.28625,-12.43542 c 0,0 -0.29898,-1.50548 1.60338,-0.60325 1.90235,0.90223 10.84791,5.0509 10.84791,5.0509 a 6.6145832,6.6145832 0 0 1 3.36286,2.85221 c 0.9181,1.55575 7.91369,14.41185 7.91369,14.41185 0.32543,0.64029 -0.42334,0.71702 -0.70115,0.59002 z"
             id="path5706" />
          <path
             style="isolation:isolate;fill:#ffffff;stroke-width:0.26458332"
             inkscape:connector-curvature="0"
             class="cls-23"
             d="m 140.59316,111.9147 c 0.30162,1.94733 0.6006,1.64835 -0.44979,2.69875 -1.0504,1.05039 -16.49942,16.19249 -16.49942,16.19249 0,0 -4.49792,6.00075 -17.10002,-6.00075 C 93.941832,112.8037 97.317912,107.25803 99.418702,105.46415 101.51949,103.67028 117.8681,87.38782 117.8681,87.38782 Z"
             id="path5708" />
          <path
             style="isolation:isolate;fill:none;stroke:#1d1d1b;stroke-width:1.32291663px"
             inkscape:connector-curvature="0"
             class="cls-21"
             d="m 140.59316,111.9147 c 0.30162,1.94733 0.6006,1.64835 -0.44979,2.69875 -1.0504,1.05039 -16.49942,16.19249 -16.49942,16.19249 0,0 -4.49792,6.00075 -17.10002,-6.00075 C 93.941832,112.8037 97.317912,107.25803 99.418702,105.46415 101.51949,103.67028 117.8681,87.38782 117.8681,87.38782 Z"
             id="path5710" />
          <path
             style="isolation:isolate;fill:#ffffff;stroke-width:0.26458332"
             inkscape:connector-curvature="0"
             class="cls-23"
             d="m 117.12197,87.758237 c 2.43681,-2.524125 10.05417,0.889 17.03652,7.622643 6.98235,6.73365 10.64948,14.23459 8.20208,16.75871 -2.44739,2.52413 -10.05416,-0.889 -17.03652,-7.62264 -6.98235,-6.73365 -10.64947,-14.237234 -8.20208,-16.758713"
             id="path5712" />
          <path
             style="isolation:isolate;fill:none;stroke:#1d1d1b;stroke-width:1.32291663px"
             inkscape:connector-curvature="0"
             class="cls-21"
             d="m 117.12197,87.758237 c 2.43681,-2.524125 10.05417,0.889 17.03652,7.622643 6.98235,6.73365 10.64948,14.23459 8.20208,16.75871 -2.44739,2.52413 -10.05416,-0.889 -17.03652,-7.62264 -6.98235,-6.73365 -10.63889,-14.237234 -8.20208,-16.758713 z"
             id="path5714" />
          <path
             style="isolation:isolate;fill:#1d1d1b;stroke-width:0.26458332"
             inkscape:connector-curvature="0"
             class="cls-22"
             d="m 133.39384,108.76351 c 5.69913,3.29935 12.4513,5.84994 4.79955,-6.74952 2.2516,5.84993 4.95035,11.25008 -4.79955,6.74952"
             id="path5716" />
          <path
             style="isolation:isolate;fill:#1d1d1b;stroke-width:0.26458332"
             inkscape:connector-curvature="0"
             class="cls-22"
             d="m 125.81353,125.77886 -4.54554,4.33652 a 2.2225,2.2225 0 0 1 -2.31246,0.0741 l 6.2574,-6.06161 z"
             id="path5718" />
          <path
             style="isolation:isolate;fill:#ffffff;stroke-width:0.26458332"
             inkscape:connector-curvature="0"
             class="cls-23"
             d="m 130.63689,95.94709 c -0.72496,0.70115 0.20108,2.11667 0.97102,2.91042 0.76993,0.79375 2.11666,1.81239 2.88396,1.07421 l 13.38791,-12.927545 c 0.79375,-0.777875 -0.37042,-2.296584 -0.90223,-2.849563 -0.53181,-0.552979 -2.1881,-1.883833 -2.95275,-1.143 L 130.63689,95.93915"
             id="path5720" />
          <path
             style="isolation:isolate;fill:none;stroke:#1d1d1b;stroke-width:1.32291663px"
             inkscape:connector-curvature="0"
             class="cls-21"
             d="m 130.63689,95.94709 c -0.72496,0.70115 0.20108,2.11667 0.97102,2.91042 0.76993,0.79375 2.11666,1.81239 2.88396,1.07421 l 13.38791,-12.927545 c 0.79375,-0.777875 -0.37042,-2.296584 -0.90223,-2.849563 -0.53181,-0.552979 -2.1881,-1.883833 -2.95275,-1.143 z"
             id="path5722" />
          <line
             id="line5726"
             y2="84.821365"
             x2="145.0408"
             y1="96.820221"
             x1="132.29054"
             class="cls-24"
             style="isolation:isolate;fill:none;stroke:#1d1d1b;stroke-width:1.32291663px;stroke-linecap:round" />
          <polygon
             transform="matrix(0.26458333,0,0,0.26458333,69.629266,55.603425)"
             id="polygon5728"
             points="42.83,81.16 66.92,160.53 173.22,203.76 152.67,137.85 "
             class="cls-22"
             style="isolation:isolate;fill:#1d1d1b" />
          <path
             style="isolation:isolate;fill:#ffffff;stroke-width:0.26458332"
             inkscape:connector-curvature="0"
             class="cls-23"
             d="m 83.387602,74.595216 5.99281,20.701004 27.749498,11.40089 c 0,0 2.24896,0.44979 0.89958,-2.39977 -1.34937,-2.84956 -4.65137,-11.400895 -4.65137,-11.400895 0,0 0.30162,-0.899583 -2.99773,-2.849562 -2.32834,-1.375833 -26.101148,-16.499417 -26.101148,-16.499417 -0.97366,-0.489479 -1.08744,0.635 -0.89958,1.058334"
             id="path5730" />
          <path
             style="isolation:isolate;fill:none;stroke:#1d1d1b;stroke-width:1.32291663px"
             inkscape:connector-curvature="0"
             class="cls-21"
             d="m 83.387602,74.595216 5.99281,20.701004 27.749498,11.40089 c 0,0 2.24896,0.44979 0.89958,-2.39977 -1.34937,-2.84956 -4.65137,-11.400895 -4.65137,-11.400895 0,0 0.30162,-0.899583 -2.99773,-2.849562 -2.32834,-1.375833 -26.101148,-16.499417 -26.101148,-16.499417 -0.96573,-0.489479 -1.0795,0.637646 -0.89164,1.04775 z"
             id="path5732" />
          <path
             style="isolation:isolate;fill:#1d1d1b;stroke-width:0.26458332"
             inkscape:connector-curvature="0"
             class="cls-22"
             d="m 119.48999,114.68488 c 0.19579,0 15.55221,5.62504 15.748,5.62504 0.19579,0 17.53658,27.45317 17.53658,27.45317 l -21.32541,-5.14085 z"
             id="path5734" />
          <path
             style="isolation:isolate;fill:#ffffff;stroke-width:0.26458332"
             inkscape:connector-curvature="0"
             class="cls-23"
             d="m 154.17157,145.35803 -20.75127,-5.82084 -11.64166,-27.64895 c 0,0 -0.47096,-2.24632 2.38125,-0.92075 2.8522,1.32556 11.44058,4.54818 11.44058,4.54818 0,0 1.45256,0.74613 2.87602,2.97657 1.45521,2.27806 16.72696,25.95562 16.72696,25.95562 0.49477,0.97102 -0.62971,1.09273 -1.04246,0.90752"
             id="path5736" />
          <path
             style="isolation:isolate;fill:none;stroke:#1d1d1b;stroke-width:1.32291663px"
             inkscape:connector-curvature="0"
             class="cls-21"
             d="m 154.17157,145.35803 -20.75127,-5.82084 -11.64166,-27.64895 c 0,0 -0.47096,-2.24632 2.38125,-0.92075 2.8522,1.32556 11.44058,4.54818 11.44058,4.54818 0,0 1.45256,0.74613 2.87602,2.97657 1.45521,2.27806 16.72696,25.95562 16.72696,25.95562 0.50535,0.97367 -0.61913,1.09538 -1.03188,0.91017 z"
             id="path5738" />
        </g>
      </g>
    </g>
  </g>
</svg>
